com\cps3230\stubs\DBConnectionSuccessfulSpy.class
com\cps3230\stubs\DBConnectionSuccessful.class
com\cps3230\stubs\DBConnectionFailsOnSecondCommit.class
com\cps3230\stubs\DBConnectionFail.class
com\cps3230\UnitTests.class
